<svg width="202" height="15" viewBox="0 0 202 15" fill="none" xmlns="http://www.w3.org/2000/svg">
<path d="M4.472 14.126C3.632 14.126 2.876 13.982 2.204 13.694C1.532 13.394 1.004 12.974 0.62 12.434C0.236 11.894 0.044 11.264 0.044 10.544H2.24C2.288 11.084 2.498 11.528 2.87 11.876C3.254 12.224 3.788 12.398 4.472 12.398C5.18 12.398 5.732 12.23 6.128 11.894C6.524 11.546 6.722 11.102 6.722 10.562C6.722 10.142 6.596 9.8 6.344 9.536C6.104 9.272 5.798 9.068 5.426 8.924C5.066 8.78 4.562 8.624 3.914 8.456C3.098 8.24 2.432 8.024 1.916 7.808C1.412 7.58 0.98 7.232 0.62 6.764C0.26 6.296 0.08 5.672 0.08 4.892C0.08 4.172 0.26 3.542 0.62 3.002C0.98 2.462 1.484 2.048 2.132 1.76C2.78 1.472 3.53 1.328 4.382 1.328C5.594 1.328 6.584 1.634 7.352 2.246C8.132 2.846 8.564 3.674 8.648 4.73H6.38C6.344 4.274 6.128 3.884 5.732 3.56C5.336 3.236 4.814 3.074 4.166 3.074C3.578 3.074 3.098 3.224 2.726 3.524C2.354 3.824 2.168 4.256 2.168 4.82C2.168 5.204 2.282 5.522 2.51 5.774C2.75 6.014 3.05 6.206 3.41 6.35C3.77 6.494 4.262 6.65 4.886 6.818C5.714 7.046 6.386 7.274 6.902 7.502C7.43 7.73 7.874 8.084 8.234 8.564C8.606 9.032 8.792 9.662 8.792 10.454C8.792 11.09 8.618 11.69 8.27 12.254C7.934 12.818 7.436 13.274 6.776 13.622C6.128 13.958 5.36 14.126 4.472 14.126ZM20.3033 8.798C20.3033 9.17 20.2793 9.506 20.2313 9.806H12.6533C12.7133 10.598 13.0073 11.234 13.5353 11.714C14.0633 12.194 14.7113 12.434 15.4793 12.434C16.5833 12.434 17.3633 11.972 17.8193 11.048H20.0333C19.7333 11.96 19.1873 12.71 18.3953 13.298C17.6153 13.874 16.6433 14.162 15.4793 14.162C14.5313 14.162 13.6793 13.952 12.9233 13.532C12.1793 13.1 11.5913 12.5 11.1593 11.732C10.7393 10.952 10.5293 10.052 10.5293 9.032C10.5293 8.012 10.7333 7.118 11.1413 6.35C11.5613 5.57 12.1433 4.97 12.8873 4.55C13.6433 4.13 14.5073 3.92 15.4793 3.92C16.4153 3.92 17.2493 4.124 17.9813 4.532C18.7133 4.94 19.2833 5.516 19.6913 6.26C20.0993 6.992 20.3033 7.838 20.3033 8.798ZM18.1613 8.15C18.1493 7.394 17.8793 6.788 17.3513 6.332C16.8233 5.876 16.1693 5.648 15.3893 5.648C14.6813 5.648 14.0753 5.876 13.5713 6.332C13.0673 6.776 12.7673 7.382 12.6713 8.15H18.1613ZM27.3267 3.92C28.1067 3.92 28.8027 4.082 29.4147 4.406C30.0387 4.73 30.5247 5.21 30.8727 5.846C31.2207 6.482 31.3947 7.25 31.3947 8.15V14H29.3607V8.456C29.3607 7.568 29.1387 6.89 28.6947 6.422C28.2507 5.942 27.6447 5.702 26.8767 5.702C26.1087 5.702 25.4967 5.942 25.0407 6.422C24.5967 6.89 24.3747 7.568 24.3747 8.456V14H22.3227V4.082H24.3747V5.216C24.7107 4.808 25.1367 4.49 25.6527 4.262C26.1807 4.034 26.7387 3.92 27.3267 3.92ZM41.6261 6.62V8.348H34.2281V6.62H41.6261ZM57.7174 1.49V14H55.6654V5.432L51.8494 14H50.4274L46.5934 5.432V14H44.5414V1.49H46.7554L51.1474 11.3L55.5214 1.49H57.7174ZM61.4585 2.768C61.0865 2.768 60.7745 2.642 60.5225 2.39C60.2705 2.138 60.1445 1.826 60.1445 1.454C60.1445 1.082 60.2705 0.769999 60.5225 0.518C60.7745 0.265999 61.0865 0.139999 61.4585 0.139999C61.8185 0.139999 62.1245 0.265999 62.3765 0.518C62.6285 0.769999 62.7545 1.082 62.7545 1.454C62.7545 1.826 62.6285 2.138 62.3765 2.39C62.1245 2.642 61.8185 2.768 61.4585 2.768ZM62.4665 4.082V14H60.4145V4.082H62.4665ZM70.1645 3.92C70.9445 3.92 71.6405 4.082 72.2525 4.406C72.8765 4.73 73.3625 5.21 73.7105 5.846C74.0585 6.482 74.2325 7.25 74.2325 8.15V14H72.1985V8.456C72.1985 7.568 71.9765 6.89 71.5325 6.422C71.0885 5.942 70.4825 5.702 69.7145 5.702C68.9465 5.702 68.3345 5.942 67.8785 6.422C67.4345 6.89 67.2125 7.568 67.2125 8.456V14H65.1605V4.082H67.2125V5.216C67.5485 4.808 67.9745 4.49 68.4905 4.262C69.0185 4.034 69.5765 3.92 70.1645 3.92ZM77.678 14.126C77.306 14.126 76.994 14 76.742 13.748C76.49 13.496 76.364 13.184 76.364 12.812C76.364 12.44 76.49 12.128 76.742 11.876C76.994 11.624 77.306 11.498 77.678 11.498C78.038 11.498 78.344 11.624 78.596 11.876C78.848 12.128 78.974 12.44 78.974 12.812C78.974 13.184 78.848 13.496 78.596 13.748C78.344 14 78.038 14.126 77.678 14.126ZM77.678 6.566C77.306 6.566 76.994 6.44 76.742 6.188C76.49 5.936 76.364 5.624 76.364 5.252C76.364 4.88 76.49 4.568 76.742 4.316C76.994 4.064 77.306 3.938 77.678 3.938C78.038 3.938 78.344 4.064 78.596 4.316C78.848 4.568 78.974 4.88 78.974 5.252C78.974 5.624 78.848 5.936 78.596 6.188C78.344 6.44 78.038 6.566 77.678 6.566Z" fill="#555555"/>
<path d="M85.6679 7.268C85.6679 5.192 86.0159 3.572 86.7119 2.408C87.4199 1.232 88.6319 0.643999 90.3479 0.643999C92.0639 0.643999 93.2699 1.232 93.9659 2.408C94.6739 3.572 95.0279 5.192 95.0279 7.268C95.0279 9.368 94.6739 11.012 93.9659 12.2C93.2699 13.376 92.0639 13.964 90.3479 13.964C88.6319 13.964 87.4199 13.376 86.7119 12.2C86.0159 11.012 85.6679 9.368 85.6679 7.268ZM93.0119 7.268C93.0119 6.296 92.9459 5.474 92.8139 4.802C92.6939 4.13 92.4419 3.584 92.0579 3.164C91.6739 2.732 91.1039 2.516 90.3479 2.516C89.5919 2.516 89.0219 2.732 88.6379 3.164C88.2539 3.584 87.9959 4.13 87.8639 4.802C87.7439 5.474 87.6839 6.296 87.6839 7.268C87.6839 8.276 87.7439 9.122 87.8639 9.806C87.9839 10.49 88.2359 11.042 88.6199 11.462C89.0159 11.882 89.5919 12.092 90.3479 12.092C91.1039 12.092 91.6739 11.882 92.0579 11.462C92.4539 11.042 92.7119 10.49 92.8319 9.806C92.9519 9.122 93.0119 8.276 93.0119 7.268ZM99.4131 7.142C98.1651 6.518 97.5411 5.534 97.5411 4.19C97.5411 3.542 97.7031 2.948 98.0271 2.408C98.3511 1.868 98.8371 1.442 99.4851 1.13C100.133 0.805999 100.925 0.643999 101.861 0.643999C102.785 0.643999 103.571 0.805999 104.219 1.13C104.879 1.442 105.371 1.868 105.695 2.408C106.019 2.948 106.181 3.542 106.181 4.19C106.181 4.862 106.007 5.456 105.659 5.972C105.323 6.476 104.873 6.866 104.309 7.142C104.993 7.394 105.533 7.808 105.929 8.384C106.325 8.948 106.523 9.614 106.523 10.382C106.523 11.162 106.325 11.852 105.929 12.452C105.533 13.052 104.981 13.514 104.273 13.838C103.565 14.162 102.761 14.324 101.861 14.324C100.961 14.324 100.157 14.162 99.4491 13.838C98.7531 13.514 98.2071 13.052 97.8111 12.452C97.4151 11.852 97.2171 11.162 97.2171 10.382C97.2171 9.602 97.4151 8.93 97.8111 8.366C98.2071 7.802 98.7411 7.394 99.4131 7.142ZM104.219 4.442C104.219 3.77 104.009 3.254 103.589 2.894C103.169 2.534 102.593 2.354 101.861 2.354C101.141 2.354 100.571 2.534 100.151 2.894C99.7311 3.254 99.5211 3.776 99.5211 4.46C99.5211 5.06 99.7371 5.552 100.169 5.936C100.613 6.308 101.177 6.494 101.861 6.494C102.545 6.494 103.109 6.302 103.553 5.918C103.997 5.534 104.219 5.042 104.219 4.442ZM101.861 8.042C101.069 8.042 100.421 8.24 99.9171 8.636C99.4251 9.02 99.1791 9.578 99.1791 10.31C99.1791 10.994 99.4191 11.552 99.8991 11.984C100.379 12.404 101.033 12.614 101.861 12.614C102.677 12.614 103.319 12.398 103.787 11.966C104.267 11.534 104.507 10.982 104.507 10.31C104.507 9.59 104.261 9.032 103.769 8.636C103.289 8.24 102.653 8.042 101.861 8.042ZM109.776 14.126C109.404 14.126 109.092 14 108.84 13.748C108.588 13.496 108.462 13.184 108.462 12.812C108.462 12.44 108.588 12.128 108.84 11.876C109.092 11.624 109.404 11.498 109.776 11.498C110.136 11.498 110.442 11.624 110.694 11.876C110.946 12.128 111.072 12.44 111.072 12.812C111.072 13.184 110.946 13.496 110.694 13.748C110.442 14 110.136 14.126 109.776 14.126ZM113.019 7.268C113.019 5.192 113.367 3.572 114.063 2.408C114.771 1.232 115.983 0.643999 117.699 0.643999C119.415 0.643999 120.621 1.232 121.317 2.408C122.025 3.572 122.379 5.192 122.379 7.268C122.379 9.368 122.025 11.012 121.317 12.2C120.621 13.376 119.415 13.964 117.699 13.964C115.983 13.964 114.771 13.376 114.063 12.2C113.367 11.012 113.019 9.368 113.019 7.268ZM120.363 7.268C120.363 6.296 120.297 5.474 120.165 4.802C120.045 4.13 119.793 3.584 119.409 3.164C119.025 2.732 118.455 2.516 117.699 2.516C116.943 2.516 116.373 2.732 115.989 3.164C115.605 3.584 115.347 4.13 115.215 4.802C115.095 5.474 115.035 6.296 115.035 7.268C115.035 8.276 115.095 9.122 115.215 9.806C115.335 10.49 115.587 11.042 115.971 11.462C116.367 11.882 116.943 12.092 117.699 12.092C118.455 12.092 119.025 11.882 119.409 11.462C119.805 11.042 120.063 10.49 120.183 9.806C120.303 9.122 120.363 8.276 120.363 7.268ZM124.551 7.268C124.551 5.192 124.899 3.572 125.595 2.408C126.303 1.232 127.515 0.643999 129.231 0.643999C130.947 0.643999 132.153 1.232 132.849 2.408C133.557 3.572 133.911 5.192 133.911 7.268C133.911 9.368 133.557 11.012 132.849 12.2C132.153 13.376 130.947 13.964 129.231 13.964C127.515 13.964 126.303 13.376 125.595 12.2C124.899 11.012 124.551 9.368 124.551 7.268ZM131.895 7.268C131.895 6.296 131.829 5.474 131.697 4.802C131.577 4.13 131.325 3.584 130.941 3.164C130.557 2.732 129.987 2.516 129.231 2.516C128.475 2.516 127.905 2.732 127.521 3.164C127.137 3.584 126.879 4.13 126.747 4.802C126.627 5.474 126.567 6.296 126.567 7.268C126.567 8.276 126.627 9.122 126.747 9.806C126.867 10.49 127.119 11.042 127.503 11.462C127.899 11.882 128.475 12.092 129.231 12.092C129.987 12.092 130.557 11.882 130.941 11.462C131.337 11.042 131.595 10.49 131.715 9.806C131.835 9.122 131.895 8.276 131.895 7.268ZM148.642 6.62V8.348H141.244V6.62H148.642ZM157.097 11.21C158.249 10.214 159.155 9.398 159.815 8.762C160.487 8.114 161.045 7.442 161.489 6.746C161.933 6.05 162.155 5.354 162.155 4.658C162.155 3.938 161.981 3.374 161.633 2.966C161.297 2.558 160.763 2.354 160.031 2.354C159.323 2.354 158.771 2.582 158.375 3.038C157.991 3.482 157.787 4.082 157.763 4.838H155.783C155.819 3.47 156.227 2.426 157.007 1.706C157.799 0.974 158.801 0.608 160.013 0.608C161.321 0.608 162.341 0.968 163.073 1.688C163.817 2.408 164.189 3.368 164.189 4.568C164.189 5.432 163.967 6.266 163.523 7.07C163.091 7.862 162.569 8.576 161.957 9.212C161.357 9.836 160.589 10.562 159.653 11.39L158.843 12.11H164.549V13.82H155.801V12.326L157.097 11.21ZM167.485 11.21C168.637 10.214 169.543 9.398 170.203 8.762C170.875 8.114 171.433 7.442 171.877 6.746C172.321 6.05 172.543 5.354 172.543 4.658C172.543 3.938 172.369 3.374 172.021 2.966C171.685 2.558 171.151 2.354 170.419 2.354C169.711 2.354 169.159 2.582 168.763 3.038C168.379 3.482 168.175 4.082 168.151 4.838H166.171C166.207 3.47 166.615 2.426 167.395 1.706C168.187 0.974 169.189 0.608 170.401 0.608C171.709 0.608 172.729 0.968 173.461 1.688C174.205 2.408 174.577 3.368 174.577 4.568C174.577 5.432 174.355 6.266 173.911 7.07C173.479 7.862 172.957 8.576 172.345 9.212C171.745 9.836 170.977 10.562 170.041 11.39L169.231 12.11H174.937V13.82H166.189V12.326L167.485 11.21ZM177.838 14.126C177.466 14.126 177.154 14 176.902 13.748C176.65 13.496 176.524 13.184 176.524 12.812C176.524 12.44 176.65 12.128 176.902 11.876C177.154 11.624 177.466 11.498 177.838 11.498C178.198 11.498 178.504 11.624 178.756 11.876C179.008 12.128 179.134 12.44 179.134 12.812C179.134 13.184 179.008 13.496 178.756 13.748C178.504 14 178.198 14.126 177.838 14.126ZM181.082 7.268C181.082 5.192 181.43 3.572 182.126 2.408C182.834 1.232 184.046 0.643999 185.762 0.643999C187.478 0.643999 188.684 1.232 189.38 2.408C190.088 3.572 190.442 5.192 190.442 7.268C190.442 9.368 190.088 11.012 189.38 12.2C188.684 13.376 187.478 13.964 185.762 13.964C184.046 13.964 182.834 13.376 182.126 12.2C181.43 11.012 181.082 9.368 181.082 7.268ZM188.426 7.268C188.426 6.296 188.36 5.474 188.228 4.802C188.108 4.13 187.856 3.584 187.472 3.164C187.088 2.732 186.518 2.516 185.762 2.516C185.006 2.516 184.436 2.732 184.052 3.164C183.668 3.584 183.41 4.13 183.278 4.802C183.158 5.474 183.098 6.296 183.098 7.268C183.098 8.276 183.158 9.122 183.278 9.806C183.398 10.49 183.65 11.042 184.034 11.462C184.43 11.882 185.006 12.092 185.762 12.092C186.518 12.092 187.088 11.882 187.472 11.462C187.868 11.042 188.126 10.49 188.246 9.806C188.366 9.122 188.426 8.276 188.426 7.268ZM192.613 7.268C192.613 5.192 192.961 3.572 193.657 2.408C194.365 1.232 195.577 0.643999 197.293 0.643999C199.009 0.643999 200.215 1.232 200.911 2.408C201.619 3.572 201.973 5.192 201.973 7.268C201.973 9.368 201.619 11.012 200.911 12.2C200.215 13.376 199.009 13.964 197.293 13.964C195.577 13.964 194.365 13.376 193.657 12.2C192.961 11.012 192.613 9.368 192.613 7.268ZM199.957 7.268C199.957 6.296 199.891 5.474 199.759 4.802C199.639 4.13 199.387 3.584 199.003 3.164C198.619 2.732 198.049 2.516 197.293 2.516C196.537 2.516 195.967 2.732 195.583 3.164C195.199 3.584 194.941 4.13 194.809 4.802C194.689 5.474 194.629 6.296 194.629 7.268C194.629 8.276 194.689 9.122 194.809 9.806C194.929 10.49 195.181 11.042 195.565 11.462C195.961 11.882 196.537 12.092 197.293 12.092C198.049 12.092 198.619 11.882 199.003 11.462C199.399 11.042 199.657 10.49 199.777 9.806C199.897 9.122 199.957 8.276 199.957 7.268Z" fill="#0B7125"/>
</svg>
